"Job","Voyager Branch","Holodeck Branch","Voyager Utils","Backend Branch","Frontend Branch","Pipeline Branch","Xql Engine Gonzo","Xql Engine","Cortex Version","Production Folder","Production Last Night","Staging Folder","Staging Last Night","Upgrade","Prepare Tenant","Terraform","Hydra Branch","Hydra Branch Devops","Hydra Environment Type"
"QA-Auto-Release-Nightly","xdr_2_7_0","xdr_2_7_0","xdr_2_7_0","master","master","master","master","master","2.7.0-drop4","/XDR 2.6.5/Automation/Production","/XDR 2.6.5/Automation/Production/Last night","/XDR 2.6.5/Automation/Staging","/XDR 2.6.5/Automation/Staging/Last night","true","true","false","","",""
"QA-Auto-Release-Sanity","xdr_2_7_0","xdr_2_7_0","xdr_2_7_0","master","master","master","master","master","2.7.0-drop4","/Automation Hourly Sanity - MASTER","","","","true","true","true","","",""
"QA-Auto-Develop-Nightly","master","master","master","master","master","master","master","master","2.7.0-drop4","/XDR 2.7.0/Automation/Production","/XDR 2.7.0/Automation/Production/Last night","/XDR 2.7.0/Automation/Staging","/XDR 2.7.0/Automation/Staging/Last night","true","true","true","dev","master","dev"
"QA-Auto-Develop-Sanity","master","master","master","dev","dev","dev","dev","master","2.7.0-drop4","/Automation Hourly Sanity - DEV","","","","true","true","true","","",""
"QA-Auto-Staging-Sanity","master","master","master","staging","staging","staging","staging","master","2.7.0-drop4","/Automation Hourly Sanity - STAGING","","","","true","true","true","","",""
"QA-Auto-Sanity-Clean","master","master","master","staging","staging","staging","staging","master","2.7.0-drop4","","","","","true","true","true","","",""
"QA-Auto-Scheduled-Staging","master","master","master","master","master","master","master","master","2.7.0-drop4","","","","","true","true","true","","",""